// Jest Snapshot v1, https://goo.gl/fbAQLP

exports[`renders 1`] = `
<DocumentFragment>
  <div
    class="sc-AxmLO clPTdj"
  >
    <div
      class="sc-fzozJi kiAbwK"
    >
      <div
        class="sc-fzpans ixasmR"
      >
        <div>
          <button
            class="sc-AxhUy sc-AxgMl koFDMi"
            type="submit"
          >
            Edit
          </button>
          <button
            class="sc-AxhUy cWcOjy"
            type="button"
          >
            Close
          </button>
        </div>
        <button
          class="sc-AxhUy sc-AxheI jRZINU"
          data-testid="button-trigger"
          type="button"
        >
          Delete
        </button>
      </div>
      <h1
        class="sc-fzoLsD emzmek"
        role="heading"
      >
        Tokio
      </h1>
      <p>
        El Área del Gran Tokio se denomina a la amplia área metropolitana de Tokio, Japón. Es una de las áreas metropolitanas con mayor población en el mundo. En japonés, Área del Gran Tokio se puede referir tanto a Área de Tokio (東京圏 Tōkyō-ken?), como a Capital (首都圏 Shuto-ken?) o Sur de Kanto (南関東 Minami-Kantō?). Esta área es la primera en el mundo en el uso de tránsito rápido, con 22 millones de pasajeros que utilizan diariamente las 136 líneas de tren.
      </p>
      <img
        alt="Tokio"
        src="https://heymondo.es/blog/wp-content/uploads/2018/08/tokio-en-3-d%C3%ADas.jpg"
      />
    </div>
    <div
      class="sc-AxjAm koFyCs"
    >
      <div
        style="position: relative; width: 0px; height: 0px; cursor: grab; outline: none;"
        tabindex="0"
      >
        <div
          style="position: relative; width: 100%; height: 100%;"
        >
          <div
            class=""
            style="position: absolute; width: 100%; height: 100%; overflow: hidden; visibility: inherit;"
          />
          <div
            style="overflow: visible; height: 0px; width: 0px;"
          />
          <div
            class="resize-triggers"
          >
            <div
              class="expand-trigger"
            >
              <div
                style="width: 1px; height: 1px;"
              />
            </div>
            <div
              class="contract-trigger"
            />
          </div>
        </div>
      </div>
    </div>
  </div>
</DocumentFragment>
`;
